pc_fast_blinker_jpeg/tb.vcd
$date
   Mon Dec  1 17:04:16 2025 UTC
$end
$version
    MyHDL 0.11.51
$end
$timescale
    1ns
$end

  $scope module tb $end
    $var reg 10 ! t $end
    $var reg 10 " res_o $end
    $var reg 9 # z $end
    $var reg 3 $ flgs $end
    $var reg 9 % lft $end
    $var reg 9 & rht $end
    $var reg 9 ' sam $end
    $var reg 1 ( clock $end
    $var reg 1 ) upd $end
    $var reg 1 * done $end
    $var reg 10 + lift $end
    $scope module instance_1 $end
      $var reg 10 ! t $end
      $var reg 10 " res_o $end
      $var reg 9 # z $end
      $var reg 3 $ flgs $end
      $var reg 9 % lft $end
      $var reg 9 & rht $end
      $var reg 9 ' sam $end
      $var reg 1 ( clock $end
      $var reg 1 ) upd $end
      $var reg 1 * done $end
      $var reg 10 + lift $end
    $upscope $end
    $scope module instance_lift $end
      $var reg 10 ! t $end
      $var reg 10 " res_o $end
      $var reg 9 # z $end
      $var reg 3 $ flgs $end
      $var reg 9 % lft $end
      $var reg 9 & rht $end
      $var reg 9 ' sam $end
      $var reg 1 ( clock $end
      $var reg 1 ) upd $end
      $var reg 1 * done $end
      $var reg 10 + lift $end
    $upscope $end
  $upscope $end

$enddefinitions $end

$dumpvars
b0000000000 !
b0000000000 "
b000000000 #
b000 $
b000000000 %
b000000000 &
b000000000 '
0(
0)
0*
b0000000000 +
$end
b010100000 %
#10
1(
1*
b010100010 '
#20
0(
#30
1(
b010100001 &
#40
0(
#50
1(
b111 $
#60
0(
#70
1(
1)
#80
0(
#90
1(
0*
b0000000010 +
0)
#100
0(
#110
1(
b000000010 '
1*
#120
0(
#130
1(
b0000000010 !
#140
0(
#150
1(
b0000000010 "
b000000010 #
#160
0(
#170
1(
b101 $
#180
0(
#190
1(
1)
#200
0(
#210
1(
0*
b0010100010 +
0)
#220
0(
#230
1(
1*
#240
0(
#250
1(
b010011110 %
#260
0(
#270
1(
b010011111 '
#280
0(
#290
1(
#300
0(
#310
1(
b111 $
#320
0(
#330
1(
1)
#340
0(
#350
1(
0)
0*
b0000000000 +
#360
0(
#370
1(
1*
b000000000 '
#380
0(
#390
1(
b0000000000 !
#400
0(
#410
1(
b0000000000 "
b000000000 #
#420
0(
#430
1(
b101 $
#440
0(
#450
1(
1)
#460
0(
#470
1(
0)
0*
b0010011111 +
#480
0(
#490
1(
1*
#500
0(
#510
1(
b011100001 %
#520
0(
#530
1(
b011100000 '
#540
0(
#550
1(
b011011110 &
#560
0(
#570
1(
b110 $
#580
0(
#590
1(
1)
#600
0(
#610
1(
0*
b0101010000 +
0)
#620
0(
#630
1(
b101010000 '
1*
#640
0(
#650
1(
b0101010000 !
#660
0(
#670
1(
b0101010000 "
b101010000 #
#680
0(
#690
1(
b100 $
#700
0(
#710
1(
1)
#720
0(
#730
1(
0*
b1011100000 +
0)
#740
0(
#750
1(
1*
#760
0(
#770
1(
b1011100000 !
#780
0(
#790
1(
b0011100000 "
b011100000 #
